[
    {
        "question": "Which type of basal insulin are currently being used?",
        "inputType": "dropdown",
        "options": [
            "Abasaglar",
            "Lantus",
            "Levemir",
            "NPH insulin",
            "Toujeo",
            "Tresiba"
        ]
    },
    {
        "question": "How often a day basal insulin is used?",
        "inputType": "radio",
        "options": [
            "1x per day",
            "2x per day"
        ]
    },
    {
        "question": "How many basal insulin units are currently used in total per day?",
        "inputType": "text"
    }
]